[{
  "id": 1,
  "fecha": "12/23/2018",
  "importe": 57,
  "latitud": 48.7381259,
  "longitud": 2.3536083,
  "ciudad": "Rungis"
}, {
  "id": 2,
  "fecha": "9/22/2018",
  "importe": 62,
  "latitud": 57.7298725,
  "longitud": 13.1015839,
  "ciudad": "Borås"
}, {
  "id": 3,
  "fecha": "3/6/2019",
  "importe": 84,
  "latitud": 32.2945837,
  "longitud": -64.7858887,
  "ciudad": "Hamilton"
}, {
  "id": 4,
  "fecha": "12/15/2018",
  "importe": 100,
  "latitud": 10.5925289,
  "longitud": 14.3210095,
  "ciudad": "Maroua"
}, {
  "id": 5,
  "fecha": "9/10/2018",
  "importe": 82,
  "latitud": -7.196982,
  "longitud": 106.5112712,
  "ciudad": "Ciemas"
}, {
  "id": 6,
  "fecha": "3/6/2019",
  "importe": 77,
  "latitud": -26.5081999,
  "longitud": 31.3713164,
  "ciudad": "Manzini"
}, {
  "id": 7,
  "fecha": "2/20/2019",
  "importe": 61,
  "latitud": 6.0318676,
  "longitud": 125.1290351,
  "ciudad": "General Santos"
}, {
  "id": 8,
  "fecha": "10/18/2018",
  "importe": 27,
  "latitud": 37.032706,
  "longitud": 80.34115,
  "ciudad": "Nu’erbage"
}, {
  "id": 9,
  "fecha": "12/10/2018",
  "importe": 40,
  "latitud": 35.719396,
  "longitud": 117.953621,
  "ciudad": "Mengyin"
}, {
  "id": 10,
  "fecha": "4/2/2019",
  "importe": 42,
  "latitud": 16.650007,
  "longitud": 103.889068,
  "ciudad": "Nikhom Phattana"
}]
